Manipulating objects in the Tidyverse
…
.pull-right[
<blockquote class="twitter-tweet" data-lang="en"><p lang="en" dir="ltr"><a href="https://twitter.com/hashtag/TidyTuesday?src=hash&amp;ref_src=twsrc%5Etfw">#TidyTuesday</a> contribution for this week required patience and perseverance but I did it 💪🏻🐦<a href="https://twitter.com/hashtag/rstats?src=hash&amp;ref_src=twsrc%5Etfw">#rstats</a> <a href="https://twitter.com/hashtag/tidyverse?src=hash&amp;ref_src=twsrc%5Etfw">#tidyverse</a> <a href="https://twitter.com/hashtag/dataviz?src=hash&amp;ref_src=twsrc%5Etfw">#dataviz</a> <a href="https://twitter.com/hashtag/birds?src=hash&amp;ref_src=twsrc%5Etfw">#birds</a> <a href="https://t.co/8P7Zjgvw0e">pic.twitter.com/8P7Zjgvw0e</a></p>&mdash; Antoine (@_abichat) <a href="https://twitter.com/_abichat/status/1123214724928241665?ref_src=twsrc%5Etfw">April 30, 2019</a></blockquote> 
]
]
---
# Nuclear explosions 

```r
df_nuclear <- tt_load("2019-08-20")$nuclear_explosions 
df_nuclear
```

```
  # A tibble: 2,051 x 16
     date_long  year id_no country region source latitude longitude magnitude_body
         <dbl> <dbl> <dbl> <chr>   <chr>  <chr>     <dbl>     <dbl>          <dbl>
   1  19450716  1945 45001 USA     ALAMO… DOE        32.5     -106.              0
   2  19450805  1945 45002 USA     HIROS… DOE        34.2      132.              0
   3  19450809  1945 45003 USA     NAGAS… DOE        32.4      130.              0
   4  19460630  1946 46001 USA     BIKINI DOE        11.4      165.              0
   5  19460724  1946 46002 USA     BIKINI DOE        11.4      165.              0
   6  19480414  1948 48001 USA     ENEWE… DOE        11.3      162.              0
   7  19480430  1948 48002 USA     ENEWE… DOE        11.3      162.              0
   8  19480514  1948 48003 USA     ENEWE… DOE        11.3      162.              0
   9  19490829  1949 49001 USSR    SEMI … DOE        48         76               0
  10  19510127  1951 51001 USA     NTS    DOE        37       -116               0
  # … with 2,041 more rows, and 7 more variables: magnitude_surface <dbl>,
  #   depth <dbl>, yield_lower <dbl>, yield_upper <dbl>, purpose <chr>,
  #   name <chr>, type <chr>
```
…
.pull-right[
<blockquote class="twitter-tweet" data-lang="en"><p lang="en" dir="ltr"><a href="https://twitter.com/hashtag/TidyTuesday?src=hash&amp;ref_src=twsrc%5Etfw">#TidyTuesday</a> Nuclear explosions. Got some inspiration from the PDF of the original report. Hopefully I will be forgiven for the double axis graph, lol<a href="https://twitter.com/hashtag/r4ds?src=hash&amp;ref_src=twsrc%5Etfw">#r4ds</a> <a href="https://twitter.com/hashtag/rstats?src=hash&amp;ref_src=twsrc%5Etfw">#rstats</a> <a href="https://twitter.com/hashtag/dataviz?src=hash&amp;ref_src=twsrc%5Etfw">#dataviz</a> <a href="https://twitter.com/hashtag/nuclearweapons?src=hash&amp;ref_src=twsrc%5Etfw">#nuclearweapons</a> <a href="https://t.co/vAgydjrCHK">pic.twitter.com/vAgydjrCHK</a></p>&mdash; Harro Cyranka 🔎 (@harrocyranka) <a href="https://twitter.com/harrocyranka/status/1163805331929141248?ref_src=twsrc%5Etfw">August 20, 2019</a></blockquote> 
]

---
# Roman emperors  

```r
df_emperors <- tt_load("2019-08-13")$emperors
df_emperors
```

```
  # A tibble: 68 x 16
     index name  name_full birth      death      birth_cty birth_prv rise 
     <dbl> <chr> <chr>     <date>     <date>     <chr>     <chr>     <chr>
   1     1 Augu… IMPERATO… 0062-09-23 0014-08-19 Rome      Italia    Birt…
   2     2 Tibe… TIBERIVS… 0041-11-16 0037-03-16 Rome      Italia    Birt…
   3     3 Cali… GAIVS IV… 0012-08-31 0041-01-24 Antitum   Italia    Birt…
   4     4 Clau… TIBERIVS… 0009-08-01 0054-10-13 Lugdunum  Gallia L… Birt…
   5     5 Nero  NERO CLA… 0037-12-15 0068-06-09 Antitum   Italia    Birt…
   6     6 Galba SERVIVS … 0002-12-24 0069-01-15 Terracina Italia    Seiz…
   7     7 Otho  MARCVS S… 0032-04-28 0069-04-16 Terentin… Italia    Appo…
   8     8 Vite… AVLVS VI… 0015-09-24 0069-12-20 Rome      Italia    Seiz…
   9     9 Vesp… TITVS FL… 0009-11-17 0079-06-24 Falacrine Italia    Seiz…
  10    10 Titus TITVS FL… 0039-12-30 0081-09-13 Rome      Italia    Birt…
  # … with 58 more rows, and 8 more variables: reign_start <date>,
  #   reign_end <date>, cause <chr>, killer <chr>, dynasty <chr>, era <chr>,
  #   notes <chr>, verif_who <chr>
```
…
---
count: false
# Tidy WorldPhones 

```r
WorldPhones %>% 
  as_tibble(rownames = "Year") %>% 
* pivot_longer(-Year, names_to = "Region", values_to = "Count")
```

```
  # A tibble: 49 x 3
     Year  Region   Count
     <chr> <chr>    <dbl>
   1 1951  N.Amer   45939
   2 1951  Europe   21574
   3 1951  Asia      2876
   4 1951  S.Amer    1815
   5 1951  Oceania   1646
   6 1951  Africa      89
   7 1951  Mid.Amer   555
   8 1956  N.Amer   60423
   9 1956  Europe   29990
  10 1956  Asia      4708
  # … with 39 more rows
```
…
--

.pull-right[

```r
anscombe %>% 
  pivot_longer(
    everything(), 
*   names_to = c(".value", "group"),
*   names_pattern = "(.)(.)")
```

```
  # A tibble: 44 x 3
     group     x     y
     <chr> <dbl> <dbl>
   1 1        10  8.04
   2 2        10  9.14
   3 3        10  7.46
   4 4         8  6.58
   5 1         8  6.95
   6 2         8  8.14
   7 3         8  6.77
   8 4         8  5.76
   9 1        13  7.58
  10 2        13  8.74
  # … with 34 more rows
```
…
.scroll-output[

```r
df_nuclear %>% 
  mutate(country = fct_collapse(country, `PAKISTAN\n& INDIA` = c("INDIA", "PAKIST"))) %>%
  count(year, country) %>% 
  group_by(country) %>% 
  mutate(cum = cumsum(n)) %>% 
  ungroup()
```

```
  # A tibble: 165 x 4
      year country     n   cum
     <dbl> <fct>   <int> <int>
   1  1945 USA         3     3
   2  1946 USA         2     5
   3  1948 USA         3     8
   4  1949 USSR        1     1
   5  1951 USA        16    24
   6  1951 USSR        2     3
   7  1952 UK          1     1
   8  1952 USA        10    34
   9  1953 UK          2     3
  10  1953 USA        11    45
  # … with 155 more rows
```
…
.scroll-output[

```r
df_nuclear %>% 
  select(date_long, country) %>% 
  mutate(date_long = ymd(date_long),
         month = month(date_long, label = TRUE),
         wday = wday(date_long, label = TRUE, abbr = FALSE, week_start = 1),
         wday = fct_rev(wday)) 
```

```
  # A tibble: 2,051 x 4
     date_long  country month wday     
     <date>     <chr>   <ord> <ord>    
   1 1945-07-16 USA     Jul   Monday   
   2 1945-08-05 USA     Aug   Sunday   
   3 1945-08-09 USA     Aug   Thursday 
   4 1946-06-30 USA     Jun   Sunday   
   5 1946-07-24 USA     Jul   Wednesday
   6 1948-04-14 USA     Apr   Wednesday
   7 1948-04-30 USA     Apr   Friday   
   8 1948-05-14 USA     May   Friday   
   9 1949-08-29 USSR    Aug   Monday   
  10 1951-01-27 USA     Jan   Saturday 
  # … with 2,041 more rows
```
…
.scroll-output[

```r
df_emperors %>% 
  select(birth, death, cause) %>% 
  filter(birth <= death) %>% 
  mutate(age = time_length(death - birth, unit = "year"),
         cause = fct_lump_min(cause, min = 5),
         cause = fct_reorder(cause, age))
```

```
  # A tibble: 61 x 4
     birth      death      cause            age
     <date>     <date>     <fct>          <dbl>
   1 0012-08-31 0041-01-24 Assassination   28.4
   2 0009-08-01 0054-10-13 Assassination   45.2
   3 0037-12-15 0068-06-09 Suicide         30.5
   4 0002-12-24 0069-01-15 Assassination   66.1
   5 0032-04-28 0069-04-16 Suicide         37.0
   6 0015-09-24 0069-12-20 Assassination   54.3
   7 0009-11-17 0079-06-24 Natural Causes  69.6
   8 0039-12-30 0081-09-13 Natural Causes  41.7
   9 0051-10-24 0096-09-18 Assassination   44.9
  10 0030-11-08 0098-01-27 Natural Causes  67.3
  # … with 51 more rows
```
…
