Introduction to the Tidyverse
…
---
# Tibble

```r
library(tibble)
swiss %>% as_tibble(rownames = "Province")
```

```
## # A tibble: 47 x 7
##    Province     Fertility Agriculture Examination Education Catholic
##    <chr>            <dbl>       <dbl>       <int>     <int>    <dbl>
##  1 Courtelary        80.2        17.0          15        12     9.96
##  2 Delemont          83.1        45.1           6         9    84.8 
##  3 Franches-Mnt      92.5        39.7           5         5    93.4 
##  4 Moutier           85.8        36.5          12         7    33.8 
##  5 Neuveville        76.9        43.5          17        15     5.16
##  6 Porrentruy        76.1        35.3           9         7    90.6 
##  7 Broye             83.8        70.2          16         7    92.8 
##  8 Glane             92.4        67.8          14         8    97.2 
##  9 Gruyere           82.4        53.3          12         7    97.7 
## 10 Sarine            82.9        45.2          16        13    91.4 
## # ... with 37 more rows, and 1 more variable: Infant.Mortality <dbl>
```
…
```
## [1] "tbl_df"     "tbl"        "data.frame"
```

---
# List-column

```r
starwars %>% select(name, height, mass, hair_color, films, vehicles)
```

```
## # A tibble: 87 x 6
##    name               height  mass hair_color    films     vehicles 
##    <chr>               <int> <dbl> <chr>         <list>    <list>   
##  1 Luke Skywalker        172   77. blond         <chr [5]> <chr [2]>
##  2 C-3PO                 167   75. <NA>          <chr [6]> <chr [0]>
##  3 R2-D2                  96   32. <NA>          <chr [7]> <chr [0]>
##  4 Darth Vader           202  136. none          <chr [4]> <chr [0]>
##  5 Leia Organa           150   49. brown         <chr [5]> <chr [1]>
##  6 Owen Lars             178  120. brown, grey   <chr [3]> <chr [0]>
##  7 Beru Whitesun lars    165   75. brown         <chr [3]> <chr [0]>
##  8 R5-D4                  97   32. <NA>          <chr [1]> <chr [0]>
##  9 Biggs Darklighter     183   84. black         <chr [1]> <chr [0]>
## 10 Obi-Wan Kenobi        182   77. auburn, white <chr [6]> <chr [1]>
## # ... with 77 more rows
```
…
