Impact of tree choice in metagenomics differential abundance studies
…
* Diet

* Antibiotics

* Birth mode

]

---
## Data - abundances of taxa

.footnote[📄 Ravel et al. (2011)]

```
  # A tibble: 122 x 395
     Taxa     S001  S002  S003  S004  S005  S006  S007  S008  S009  S010
     <chr>   <dbl> <dbl> <dbl> <dbl> <dbl> <dbl> <dbl> <dbl> <dbl> <dbl>
   1 Lactob…  2318  1388  1361  2256    88  1770  1490   119  2136  1790
   2 Prevot…     0     1     1     0   525     7   134   753     0     0
   3 Megasp…     0     1     0     0   402     0     4   102     0     0
   4 Sneath…     0     0     0     0   302     0    35   272     0     0
   5 Atopob…     0     1     0     0    84     0    12    54     0     0
   6 Strept…     0     0     3     0     0     0   138     4     0     2
   7 Dialis…     0     1     0     0   152     4     2   192     0     0
   8 Anaero…     0     1     3     2     0     9    12    13     0     0
   9 Pepton…     0     1     0     0     7     2     6    50     0     0
  10 Eggert…     0     0     0     0     2     0     0     7     0     0
  # … with 112 more rows, and 384 more variables
```
…
* Count data (or compositional) data

* Zero-inflated data

* Correlation between species

* Counts spanning several orders of magnitude: `\(1 \rightarrow 10^{\small{8}}\)`

---
## Data - taxonomy

.footnote[📄 Ravel et al. (2011)]

```
  # A tibble: 129 x 5
    Phylum         Class          Order          Family         Genus        
    <chr>          <chr>          <chr>          <chr>          <chr>        
  1 Actinobacteria Actinobacteria Actinomycetal… Actinomycetac… Actinobaculum
  2 Actinobacteria Actinobacteria Actinomycetal… Actinomycetac… Actinomyces  
  3 Actinobacteria Actinobacteria Actinomycetal… Actinomycetac… Arcanobacter…
  4 Actinobacteria Actinobacteria Actinomycetal… Actinomycetac… Mobiluncus   
  5 Actinobacteria Actinobacteria Actinomycetal… Actinomycetac… Varibaculum  
  # … with 124 more rows
```

---
class: nologo
count: false
## Data - taxonomy

```
  # A tibble: 129 x 5
    Phylum         Class          Order          Family         Genus        
    <chr>          <chr>          <chr>          <chr>          <chr>        
  1 Actinobacteria Actinobacteria Actinomycetal… Actinomycetac… Actinobaculum
  2 Actinobacteria Actinobacteria Actinomycetal… Actinomycetac… Actinomyces  
  3 Actinobacteria Actinobacteria Actinomycetal… Actinomycetac… Arcanobacter…
  4 Actinobacteria Actinobacteria Actinomycetal… Actinomycetac… Mobiluncus   
  5 Actinobacteria Actinobacteria Actinomycetal… Actinomycetac… Varibaculum  
  # … with 124 more rows
```
…
