Modeling in the Tidyverse
…
---
count: false
## `map*()`

```r
map(1:100, rnorm) %>% 
  map_dbl(mean) %>% 
  tibble(Mean = .) %>% 
  mutate(N = row_number())
```

```
  # A tibble: 100 x 2
        Mean     N
       <dbl> <int>
   1  1.37       1
   2 -0.101      2
   3  0.310      3
   4  0.843      4
   5  0.358      5
   6 -0.622      6
   7 -0.185      7
   8  0.0243     8
   9 -0.612      9
  10  0.314     10
  # ... with 90 more rows
```
…
---
count: false
## Nice printing

```r
as_tibble(mtcars)
```

```
  # A tibble: 32 x 11
       mpg   cyl  disp    hp  drat    wt  qsec    vs    am  gear  carb
   * <dbl> <dbl> <dbl> <dbl> <dbl> <dbl> <dbl> <dbl> <dbl> <dbl> <dbl>
   1  21       6  160    110  3.9   2.62  16.5     0     1     4     4
   2  21       6  160    110  3.9   2.88  17.0     0     1     4     4
   3  22.8     4  108     93  3.85  2.32  18.6     1     1     4     1
   4  21.4     6  258    110  3.08  3.22  19.4     1     0     3     1
   5  18.7     8  360    175  3.15  3.44  17.0     0     0     3     2
   6  18.1     6  225    105  2.76  3.46  20.2     1     0     3     1
   7  14.3     8  360    245  3.21  3.57  15.8     0     0     3     4
   8  24.4     4  147.    62  3.69  3.19  20       1     0     4     2
   9  22.8     4  141.    95  3.92  3.15  22.9     1     0     4     2
  10  19.2     6  168.   123  3.92  3.44  18.3     1     0     4     4
  # ... with 22 more rows
```

---
count: false
## Nice printing ... but don't use row names!

```r
as_tibble(mtcars, rownames = "model")
```

```
  # A tibble: 32 x 12
     model   mpg   cyl  disp    hp  drat    wt  qsec    vs    am  gear  carb
     <chr> <dbl> <dbl> <dbl> <dbl> <dbl> <dbl> <dbl> <dbl> <dbl> <dbl> <dbl>
   1 Mazd…  21       6  160    110  3.9   2.62  16.5     0     1     4     4
   2 Mazd…  21       6  160    110  3.9   2.88  17.0     0     1     4     4
   3 Dats…  22.8     4  108     93  3.85  2.32  18.6     1     1     4     1
   4 Horn…  21.4     6  258    110  3.08  3.22  19.4     1     0     3     1
   5 Horn…  18.7     8  360    175  3.15  3.44  17.0     0     0     3     2
   6 Vali…  18.1     6  225    105  2.76  3.46  20.2     1     0     3     1
   7 Dust…  14.3     8  360    245  3.21  3.57  15.8     0     0     3     4
   8 Merc…  24.4     4  147.    62  3.69  3.19  20       1     0     4     2
   9 Merc…  22.8     4  141.    95  3.92  3.15  22.9     1     0     4     2
  10 Merc…  19.2     6  168.   123  3.92  3.44  18.3     1     0     4     4
  # ... with 22 more rows
```
…
  [[3]]
  [1] 1 2 3 6
```

---
## List-columns

```r
tibble(N = 1:50)
```

```
  # A tibble: 50 x 1
         N
     <int>
   1     1
   2     2
   3     3
   4     4
   5     5
   6     6
   7     7
   8     8
   9     9
  10    10
  # ... with 40 more rows
```

---
count: false
## List-columns

```r
tibble(N = 1:50) %>% 
  mutate(Divisors = map(N, divisors))
```

```
  # A tibble: 50 x 2
         N Divisors 
     <int> <list>   
   1     1 <dbl [1]>
   2     2 <int [2]>
   3     3 <dbl [2]>
   4     4 <dbl [3]>
   5     5 <dbl [2]>
   6     6 <dbl [4]>
   7     7 <dbl [2]>
   8     8 <dbl [4]>
   9     9 <dbl [3]>
  10    10 <dbl [4]>
  # ... with 40 more rows
```
…
---
count: false
## List-columns

```r
tibble(N = 1:50) %>% 
  mutate(Divisors = map(N, divisors),
         NbDivisors = map(Divisors, length)) 
```

--

```
  # A tibble: 50 x 3
         N Divisors  NbDivisors
     <int> <list>    <list>    
   1     1 <dbl [1]> <int [1]> 
   2     2 <int [2]> <int [1]> 
   3     3 <dbl [2]> <int [1]> 
   4     4 <dbl [3]> <int [1]> 
   5     5 <dbl [2]> <int [1]> 
   6     6 <dbl [4]> <int [1]> 
   7     7 <dbl [2]> <int [1]> 
   8     8 <dbl [4]> <int [1]> 
   9     9 <dbl [3]> <int [1]> 
  10    10 <dbl [4]> <int [1]> 
  # ... with 40 more rows
```

---
count: false
## List-columns

```r
tibble(N = 1:50) %>% 
  mutate(Divisors = map(N, divisors),
         NbDivisors = map_dbl(Divisors, length)) 
```

```
  # A tibble: 50 x 3
         N Divisors  NbDivisors
     <int> <list>         <dbl>
   1     1 <dbl [1]>          1
   2     2 <int [2]>          2
   3     3 <dbl [2]>          2
   4     4 <dbl [3]>          3
   5     5 <dbl [2]>          2
   6     6 <dbl [4]>          4
   7     7 <dbl [2]>          2
   8     8 <dbl [4]>          4
   9     9 <dbl [3]>          3
  10    10 <dbl [4]>          4
  # ... with 40 more rows
```
…
<img src="img/hex-broom.png", width=270> 

---
## Dataset

```r
df_pins <- read_table2("PINS.DON", 
                       col_names = c("variete", "diametre", "hauteur"))
df_pins
```

```
  # A tibble: 39 x 3
     variete diametre hauteur
     <chr>      <dbl>   <int>
   1 blanc       21.2     127
   2 blanc       20.2     119
   3 blanc       24.6     135
   4 blanc       23       132
   5 blanc       27.2     130
   6 blanc       18.6     130
   7 blanc       17.3     110
   8 blanc       10        75
   9 blanc       19.7     110
  10 blanc       22.3     124
  # ... with 29 more rows
```
…
---
## `augment()` 

Adds information about each observation in the dataset.

```r
(augmented <- augment(reg_simple, df_pins))
```

```
  # A tibble: 39 x 10
     variete diametre hauteur .fitted .se.fit  .resid   .hat .sigma .cooksd
   * <chr>      <dbl>   <int>   <dbl>   <dbl>   <dbl>  <dbl>  <dbl>   <dbl>
   1 blanc       21.2     127   126.     3.16   1.37  0.0775   11.5 3.32e-4
   2 blanc       20.2     119   122.     2.94  -2.65  0.0668   11.5 1.04e-3
   3 blanc       24.6     135   139.     4.13  -4.16  0.132    11.5 5.86e-3
   4 blanc       23       132   133.     3.64  -0.790 0.103    11.5 1.55e-4
   5 blanc       27.2     130   150.     4.98 -19.5   0.192    10.9 2.17e-1
   6 blanc       18.6     130   115.     2.65  14.7   0.0545   11.2 2.56e-2
   7 blanc       17.3     110   110.     2.52  -0.110 0.0491   11.5 1.27e-6
   8 blanc       10        75    81.1    3.47  -6.06  0.0935   11.5 8.10e-3
   9 blanc       19.7     110   120.     2.83  -9.66  0.0623   11.4 1.28e-2
  10 blanc       22.3     124   130.     3.45  -6.00  0.0921   11.5 7.81e-3
  # ... with 29 more rows, and 1 more variable: .std.resid <dbl>
```
…
---
## Estimation of parameters

```r
bootstrap_pins <-
  df_pins %>% 
  rowid_to_column("ID") %>% 
  mutate(diametre2 = diametre^2) %>% 
  bootstraps(times = 50)
bootstrap_pins
```

```
  # Bootstrap sampling 
  # A tibble: 50 x 2
     splits       id         
     <list>       <chr>      
   1 <S3: rsplit> Bootstrap01
   2 <S3: rsplit> Bootstrap02
   3 <S3: rsplit> Bootstrap03
   4 <S3: rsplit> Bootstrap04
   5 <S3: rsplit> Bootstrap05
   6 <S3: rsplit> Bootstrap06
   7 <S3: rsplit> Bootstrap07
   8 <S3: rsplit> Bootstrap08
   9 <S3: rsplit> Bootstrap09
  10 <S3: rsplit> Bootstrap10
  # ... with 40 more rows
```
…
---
count:false
## `rsplit` object

```r
bootstrap_pins %>% 
  pull(splits) %>% 
  first() %>% 
  as_tibble() 
```

```
  # A tibble: 39 x 5
        ID variete diametre hauteur diametre2
     <int> <chr>      <dbl>   <int>     <dbl>
   1    11 blanc        5.6      55      31.4
   2    16 blanc       14.4     107     207. 
   3     1 blanc       21.2     127     449. 
   4    15 blanc       12.6     108     159. 
   5    34 jaune       12.2      57     149. 
   6    14 blanc       13.1     116     172. 
   7    19 blanc        7        56      49  
   8    24 jaune       14.4      84     207. 
   9    20 blanc        9.3      70      86.5
  10     8 blanc       10        75     100  
  # ... with 29 more rows
```
…
--

```r
bootstrap_pins <-
  bootstrap_pins %>% 
  mutate(reg = map(splits, my_lm))
bootstrap_pins
```

```
  # Bootstrap sampling 
  # A tibble: 50 x 3
     splits       id          reg     
   * <list>       <chr>       <list>  
   1 <S3: rsplit> Bootstrap01 <S3: lm>
   2 <S3: rsplit> Bootstrap02 <S3: lm>
   3 <S3: rsplit> Bootstrap03 <S3: lm>
   4 <S3: rsplit> Bootstrap04 <S3: lm>
   5 <S3: rsplit> Bootstrap05 <S3: lm>
   6 <S3: rsplit> Bootstrap06 <S3: lm>
   7 <S3: rsplit> Bootstrap07 <S3: lm>
   8 <S3: rsplit> Bootstrap08 <S3: lm>
   9 <S3: rsplit> Bootstrap09 <S3: lm>
  10 <S3: rsplit> Bootstrap10 <S3: lm>
  # ... with 40 more rows
```
…
