Bases du modèle linéaire
…
---

```r
budget_tidy %>% 
  group_by(Année) %>% 
  summarise(Total = sum(Pourcentage))
```

```
# A tibble: 24 x 2
   Année Total
   <dbl> <dbl>
 1  1872  99.9
 2  1880 100  
 3  1890 100. 
 4  1900 100. 
 5  1903 100. 
 6  1906 100. 
 7  1909 100  
 8  1912 100  
 9  1920 100  
10  1923 100  
# ... with 14 more rows
```
…
