Bases du modèle linéaire
…
Residual standard error: 17.69 on 37 degrees of freedom
Multiple R-squared:  0.678,	Adjusted R-squared:  0.6693 
F-statistic:  77.9 on 1 and 37 DF,  p-value: 1.23e-10
```

---
### {broom} et la fonction augment()

```r
library(broom)
augment(reglin, df_pins)
```

```
# A tibble: 39 x 10
   variete diametre hauteur .fitted .se.fit .resid   .hat .sigma .cooksd
 * <fct>      <dbl>   <int>   <dbl>   <dbl>  <dbl>  <dbl>  <dbl>   <dbl>
 1 blanc       21.2     127   113.     3.48  13.5  0.0388   17.8 1.23e-2
 2 blanc       20.2     119   109.     3.24   9.54 0.0335   17.9 5.22e-3
 3 blanc       24.6     135   127.     4.56   7.90 0.0664   17.9 7.59e-3
 4 blanc       23       132   121.     4.01  11.3  0.0515   17.8 1.17e-2
 5 blanc       27.2     130   138.     5.53  -7.53 0.0978   17.9 1.09e-2
 6 blanc       18.6     130   103.     2.96  27.0  0.0279   17.3 3.43e-2
 7 blanc       17.3     110    97.8    2.84  12.2  0.0258   17.8 6.44e-3
 8 blanc       10        75    68.6    4.17   6.44 0.0556   17.9 4.13e-3
 9 blanc       19.7     110   107.     3.14   2.55 0.0314   17.9 3.47e-4
10 blanc       22.3     124   118.     3.80   6.12 0.0460   17.9 3.03e-3
# ... with 29 more rows, and 1 more variable: .std.resid <dbl>
```
…
